^D:\STUDY\ALGO2018-MASTER\LAB\LAB2\LAB2\STDAFX.CPP
D:\PROGRAM FILES (X86)\VS\VC\TOOLS\MSVC\14.13.26128\BIN\HOSTX86\X86\1049\CLUI.DLL
C:\WINDOWS\GLOBALIZATION\SORTING\SORTDEFAULT.NLS
C:\WINDOWS\SYSTEM32\TZRES.DLL
D:\STUDY\ALGO2018-MASTER\LAB\LAB2\LAB2\STDAFX.H
D:\STUDY\ALGO2018-MASTER\LAB\LAB2\LAB2\TARGETVER.H
C:\PROGRAM FILES (X86)\WINDOWS KITS\10\INCLUDE\10.0.16299.0\SHARED\SDKDDKVER.H
C:\PROGRAM FILES (X86)\WINDOWS KITS\10\INCLUDE\10.0.16299.0\UCRT\STDIO.H
C:\PROGRAM FILES (X86)\WINDOWS KITS\10\INCLUDE\10.0.16299.0\UCRT\CORECRT.H
D:\PROGRAM FILES (X86)\VS\VC\TOOLS\MSVC\14.13.26128\INCLUDE\VCRUNTIME.H
D:\PROGRAM FILES (X86)\VS\VC\TOOLS\MSVC\14.13.26128\INCLUDE\SAL.H
D:\PROGRAM FILES (X86)\VS\VC\TOOLS\MSVC\14.13.26128\INCLUDE\CONCURRENCYSAL.H
D:\PROGRAM FILES (X86)\VS\VC\TOOLS\MSVC\14.13.26128\INCLUDE\VADEFS.H
C:\PROGRAM FILES (X86)\WINDOWS KITS\10\INCLUDE\10.0.16299.0\UCRT\CORECRT_WSTDIO.H
C:\PROGRAM FILES (X86)\WINDOWS KITS\10\INCLUDE\10.0.16299.0\UCRT\CORECRT_STDIO_CONFIG.H
C:\PROGRAM FILES (X86)\WINDOWS KITS\10\INCLUDE\10.0.16299.0\UCRT\TCHAR.H
C:\PROGRAM FILES (X86)\WINDOWS KITS\10\INCLUDE\10.0.16299.0\UCRT\WCHAR.H
C:\PROGRAM FILES (X86)\WINDOWS KITS\10\INCLUDE\10.0.16299.0\UCRT\CORECRT_MEMCPY_S.H
C:\PROGRAM FILES (X86)\WINDOWS KITS\10\INCLUDE\10.0.16299.0\UCRT\ERRNO.H
D:\PROGRAM FILES (X86)\VS\VC\TOOLS\MSVC\14.13.26128\INCLUDE\VCRUNTIME_STRING.H
C:\PROGRAM FILES (X86)\WINDOWS KITS\10\INCLUDE\10.0.16299.0\UCRT\CORECRT_WCONIO.H
C:\PROGRAM FILES (X86)\WINDOWS KITS\10\INCLUDE\10.0.16299.0\UCRT\CORECRT_WCTYPE.H
C:\PROGRAM FILES (X86)\WINDOWS KITS\10\INCLUDE\10.0.16299.0\UCRT\CORECRT_WDIRECT.H
C:\PROGRAM FILES (X86)\WINDOWS KITS\10\INCLUDE\10.0.16299.0\UCRT\CORECRT_WIO.H
C:\PROGRAM FILES (X86)\WINDOWS KITS\10\INCLUDE\10.0.16299.0\UCRT\CORECRT_SHARE.H
C:\PROGRAM FILES (X86)\WINDOWS KITS\10\INCLUDE\10.0.16299.0\UCRT\CORECRT_WPROCESS.H
C:\PROGRAM FILES (X86)\WINDOWS KITS\10\INCLUDE\10.0.16299.0\UCRT\CORECRT_WSTDLIB.H
C:\PROGRAM FILES (X86)\WINDOWS KITS\10\INCLUDE\10.0.16299.0\UCRT\CORECRT_WSTRING.H
C:\PROGRAM FILES (X86)\WINDOWS KITS\10\INCLUDE\10.0.16299.0\UCRT\CORECRT_WTIME.H
C:\PROGRAM FILES (X86)\WINDOWS KITS\10\INCLUDE\10.0.16299.0\UCRT\SYS\STAT.H
C:\PROGRAM FILES (X86)\WINDOWS KITS\10\INCLUDE\10.0.16299.0\UCRT\SYS\TYPES.H
^D:\STUDY\ALGO2018-MASTER\LAB\LAB2\LAB2\LAB2.CPP
D:\PROGRAM FILES (X86)\VS\VC\TOOLS\MSVC\14.13.26128\BIN\HOSTX86\X86\1049\CLUI.DLL
C:\WINDOWS\GLOBALIZATION\SORTING\SORTDEFAULT.NLS
D:\STUDY\ALGO2018-MASTER\LAB\LAB2\LAB2\DEBUG\LAB2.PCH
C:\WINDOWS\SYSTEM32\TZRES.DLL
C:\PROGRAM FILES (X86)\WINDOWS KITS\10\INCLUDE\10.0.16299.0\UCRT\STDLIB.H
C:\PROGRAM FILES (X86)\WINDOWS KITS\10\INCLUDE\10.0.16299.0\UCRT\CORECRT_MALLOC.H
C:\PROGRAM FILES (X86)\WINDOWS KITS\10\INCLUDE\10.0.16299.0\UCRT\CORECRT_SEARCH.H
C:\PROGRAM FILES (X86)\WINDOWS KITS\10\INCLUDE\10.0.16299.0\UCRT\STDDEF.H
D:\PROGRAM FILES (X86)\VS\VC\TOOLS\MSVC\14.13.26128\INCLUDE\LIMITS.H
D:\PROGRAM FILES (X86)\VS\VC\TOOLS\MSVC\14.13.26128\INCLUDE\VCRUNTIME.H
D:\STUDY\ALGO2018-MASTER\LAB\LAB2\LAB2\DOUBLENODE.CPP
D:\STUDY\ALGO2018-MASTER\LAB\LAB2\LAB2\DOUBLENODE.H
D:\PROGRAM FILES (X86)\VS\VC\TOOLS\MSVC\14.13.26128\INCLUDE\IOSTREAM
D:\PROGRAM FILES (X86)\VS\VC\TOOLS\MSVC\14.13.26128\INCLUDE\ISTREAM
D:\PROGRAM FILES (X86)\VS\VC\TOOLS\MSVC\14.13.26128\INCLUDE\OSTREAM
D:\PROGRAM FILES (X86)\VS\VC\TOOLS\MSVC\14.13.26128\INCLUDE\IOS
D:\PROGRAM FILES (X86)\VS\VC\TOOLS\MSVC\14.13.26128\INCLUDE\XLOCNUM
D:\PROGRAM FILES (X86)\VS\VC\TOOLS\MSVC\14.13.26128\INCLUDE\CLIMITS
D:\PROGRAM FILES (X86)\VS\VC\TOOLS\MSVC\14.13.26128\INCLUDE\YVALS.H
D:\PROGRAM FILES (X86)\VS\VC\TOOLS\MSVC\14.13.26128\INCLUDE\XKEYCHECK.H
D:\PROGRAM FILES (X86)\VS\VC\TOOLS\MSVC\14.13.26128\INCLUDE\CRTDEFS.H
D:\PROGRAM FILES (X86)\VS\VC\TOOLS\MSVC\14.13.26128\INCLUDE\USE_ANSI.H
D:\PROGRAM FILES (X86)\VS\VC\TOOLS\MSVC\14.13.26128\INCLUDE\CMATH
D:\PROGRAM FILES (X86)\VS\VC\TOOLS\MSVC\14.13.26128\INCLUDE\CSTDLIB
C:\PROGRAM FILES (X86)\WINDOWS KITS\10\INCLUDE\10.0.16299.0\UCRT\MATH.H
C:\PROGRAM FILES (X86)\WINDOWS KITS\10\INCLUDE\10.0.16299.0\UCRT\CORECRT_MATH.H
D:\PROGRAM FILES (X86)\VS\VC\TOOLS\MSVC\14.13.26128\INCLUDE\XTGMATH.H
D:\PROGRAM FILES (X86)\VS\VC\TOOLS\MSVC\14.13.26128\INCLUDE\XTR1COMMON
D:\PROGRAM FILES (X86)\VS\VC\TOOLS\MSVC\14.13.26128\INCLUDE\CSTDIO
D:\PROGRAM FILES (X86)\VS\VC\TOOLS\MSVC\14.13.26128\INCLUDE\STREAMBUF
D:\PROGRAM FILES (X86)\VS\VC\TOOLS\MSVC\14.13.26128\INCLUDE\XIOSBASE
D:\PROGRAM FILES (X86)\VS\VC\TOOLS\MSVC\14.13.26128\INCLUDE\XLOCALE
D:\PROGRAM FILES (X86)\VS\VC\TOOLS\MSVC\14.13.26128\INCLUDE\CSTRING
C:\PROGRAM FILES (X86)\WINDOWS KITS\10\INCLUDE\10.0.16299.0\UCRT\STRING.H
C:\PROGRAM FILES (X86)\WINDOWS KITS\10\INCLUDE\10.0.16299.0\UCRT\CORECRT_MEMORY.H
D:\PROGRAM FILES (X86)\VS\VC\TOOLS\MSVC\14.13.26128\INCLUDE\STDEXCEPT
D:\PROGRAM FILES (X86)\VS\VC\TOOLS\MSVC\14.13.26128\INCLUDE\EXCEPTION
D:\PROGRAM FILES (X86)\VS\VC\TOOLS\MSVC\14.13.26128\INCLUDE\TYPE_TRAITS
D:\PROGRAM FILES (X86)\VS\VC\TOOLS\MSVC\14.13.26128\INCLUDE\XSTDDEF
D:\PROGRAM FILES (X86)\VS\VC\TOOLS\MSVC\14.13.26128\INCLUDE\CSTDDEF
D:\PROGRAM FILES (X86)\VS\VC\TOOLS\MSVC\14.13.26128\INCLUDE\INITIALIZER_LIST
C:\PROGRAM FILES (X86)\WINDOWS KITS\10\INCLUDE\10.0.16299.0\UCRT\MALLOC.H
D:\PROGRAM FILES (X86)\VS\VC\TOOLS\MSVC\14.13.26128\INCLUDE\VCRUNTIME_EXCEPTION.H
D:\PROGRAM FILES (X86)\VS\VC\TOOLS\MSVC\14.13.26128\INCLUDE\EH.H
C:\PROGRAM FILES (X86)\WINDOWS KITS\10\INCLUDE\10.0.16299.0\UCRT\CORECRT_TERMINATE.H
D:\PROGRAM FILES (X86)\VS\VC\TOOLS\MSVC\14.13.26128\INCLUDE\XSTRING
D:\PROGRAM FILES (X86)\VS\VC\TOOLS\MSVC\14.13.26128\INCLUDE\XMEMORY0
D:\PROGRAM FILES (X86)\VS\VC\TOOLS\MSVC\14.13.26128\INCLUDE\CSTDINT
D:\PROGRAM FILES (X86)\VS\VC\TOOLS\MSVC\14.13.26128\INCLUDE\STDINT.H
D:\PROGRAM FILES (X86)\VS\VC\TOOLS\MSVC\14.13.26128\INCLUDE\LIMITS
D:\PROGRAM FILES (X86)\VS\VC\TOOLS\MSVC\14.13.26128\INCLUDE\YMATH.H
D:\PROGRAM FILES (X86)\VS\VC\TOOLS\MSVC\14.13.26128\INCLUDE\CFLOAT
C:\PROGRAM FILES (X86)\WINDOWS KITS\10\INCLUDE\10.0.16299.0\UCRT\FLOAT.H
D:\PROGRAM FILES (X86)\VS\VC\TOOLS\MSVC\14.13.26128\INCLUDE\CWCHAR
D:\PROGRAM FILES (X86)\VS\VC\TOOLS\MSVC\14.13.26128\INCLUDE\NEW
D:\PROGRAM FILES (X86)\VS\VC\TOOLS\MSVC\14.13.26128\INCLUDE\VCRUNTIME_NEW.H
D:\PROGRAM FILES (X86)\VS\VC\TOOLS\MSVC\14.13.26128\INCLUDE\XUTILITY
D:\PROGRAM FILES (X86)\VS\VC\TOOLS\MSVC\14.13.26128\INCLUDE\UTILITY
D:\PROGRAM FILES (X86)\VS\VC\TOOLS\MSVC\14.13.26128\INCLUDE\IOSFWD
C:\PROGRAM FILES (X86)\WINDOWS KITS\10\INCLUDE\10.0.16299.0\UCRT\CRTDBG.H
D:\PROGRAM FILES (X86)\VS\VC\TOOLS\MSVC\14.13.26128\INCLUDE\VCRUNTIME_NEW_DEBUG.H
D:\PROGRAM FILES (X86)\VS\VC\TOOLS\MSVC\14.13.26128\INCLUDE\XATOMIC0.H
D:\PROGRAM FILES (X86)\VS\VC\TOOLS\MSVC\14.13.26128\INCLUDE\INTRIN0.H
D:\PROGRAM FILES (X86)\VS\VC\TOOLS\MSVC\14.13.26128\INCLUDE\TYPEINFO
D:\PROGRAM FILES (X86)\VS\VC\TOOLS\MSVC\14.13.26128\INCLUDE\VCRUNTIME_TYPEINFO.H
D:\PROGRAM FILES (X86)\VS\VC\TOOLS\MSVC\14.13.26128\INCLUDE\XLOCINFO
D:\PROGRAM FILES (X86)\VS\VC\TOOLS\MSVC\14.13.26128\INCLUDE\XLOCINFO.H
C:\PROGRAM FILES (X86)\WINDOWS KITS\10\INCLUDE\10.0.16299.0\UCRT\CTYPE.H
C:\PROGRAM FILES (X86)\WINDOWS KITS\10\INCLUDE\10.0.16299.0\UCRT\LOCALE.H
D:\PROGRAM FILES (X86)\VS\VC\TOOLS\MSVC\14.13.26128\INCLUDE\XFACET
D:\PROGRAM FILES (X86)\VS\VC\TOOLS\MSVC\14.13.26128\INCLUDE\SYSTEM_ERROR
D:\PROGRAM FILES (X86)\VS\VC\TOOLS\MSVC\14.13.26128\INCLUDE\CERRNO
D:\PROGRAM FILES (X86)\VS\VC\TOOLS\MSVC\14.13.26128\INCLUDE\XCALL_ONCE.H
C:\PROGRAM FILES (X86)\WINDOWS KITS\10\INCLUDE\10.0.16299.0\UCRT\SHARE.H
^D:\STUDY\ALGO2018-MASTER\LAB\BERNA\LAB2\LAB2\STDAFX.CPP
D:\PROGRAM FILES (X86)\VS\VC\TOOLS\MSVC\14.13.26128\BIN\HOSTX86\X86\1049\CLUI.DLL
C:\WINDOWS\GLOBALIZATION\SORTING\SORTDEFAULT.NLS
C:\WINDOWS\SYSTEM32\TZRES.DLL
D:\STUDY\ALGO2018-MASTER\LAB\BERNA\LAB2\LAB2\STDAFX.H
D:\STUDY\ALGO2018-MASTER\LAB\BERNA\LAB2\LAB2\TARGETVER.H
C:\PROGRAM FILES (X86)\WINDOWS KITS\10\INCLUDE\10.0.16299.0\SHARED\SDKDDKVER.H
C:\PROGRAM FILES (X86)\WINDOWS KITS\10\INCLUDE\10.0.16299.0\UCRT\STDIO.H
C:\PROGRAM FILES (X86)\WINDOWS KITS\10\INCLUDE\10.0.16299.0\UCRT\CORECRT.H
D:\PROGRAM FILES (X86)\VS\VC\TOOLS\MSVC\14.13.26128\INCLUDE\VCRUNTIME.H
D:\PROGRAM FILES (X86)\VS\VC\TOOLS\MSVC\14.13.26128\INCLUDE\SAL.H
D:\PROGRAM FILES (X86)\VS\VC\TOOLS\MSVC\14.13.26128\INCLUDE\CONCURRENCYSAL.H
D:\PROGRAM FILES (X86)\VS\VC\TOOLS\MSVC\14.13.26128\INCLUDE\VADEFS.H
C:\PROGRAM FILES (X86)\WINDOWS KITS\10\INCLUDE\10.0.16299.0\UCRT\CORECRT_WSTDIO.H
C:\PROGRAM FILES (X86)\WINDOWS KITS\10\INCLUDE\10.0.16299.0\UCRT\CORECRT_STDIO_CONFIG.H
C:\PROGRAM FILES (X86)\WINDOWS KITS\10\INCLUDE\10.0.16299.0\UCRT\TCHAR.H
C:\PROGRAM FILES (X86)\WINDOWS KITS\10\INCLUDE\10.0.16299.0\UCRT\WCHAR.H
C:\PROGRAM FILES (X86)\WINDOWS KITS\10\INCLUDE\10.0.16299.0\UCRT\CORECRT_MEMCPY_S.H
C:\PROGRAM FILES (X86)\WINDOWS KITS\10\INCLUDE\10.0.16299.0\UCRT\ERRNO.H
D:\PROGRAM FILES (X86)\VS\VC\TOOLS\MSVC\14.13.26128\INCLUDE\VCRUNTIME_STRING.H
C:\PROGRAM FILES (X86)\WINDOWS KITS\10\INCLUDE\10.0.16299.0\UCRT\CORECRT_WCONIO.H
C:\PROGRAM FILES (X86)\WINDOWS KITS\10\INCLUDE\10.0.16299.0\UCRT\CORECRT_WCTYPE.H
C:\PROGRAM FILES (X86)\WINDOWS KITS\10\INCLUDE\10.0.16299.0\UCRT\CORECRT_WDIRECT.H
C:\PROGRAM FILES (X86)\WINDOWS KITS\10\INCLUDE\10.0.16299.0\UCRT\CORECRT_WIO.H
C:\PROGRAM FILES (X86)\WINDOWS KITS\10\INCLUDE\10.0.16299.0\UCRT\CORECRT_SHARE.H
C:\PROGRAM FILES (X86)\WINDOWS KITS\10\INCLUDE\10.0.16299.0\UCRT\CORECRT_WPROCESS.H
C:\PROGRAM FILES (X86)\WINDOWS KITS\10\INCLUDE\10.0.16299.0\UCRT\CORECRT_WSTDLIB.H
C:\PROGRAM FILES (X86)\WINDOWS KITS\10\INCLUDE\10.0.16299.0\UCRT\CORECRT_WSTRING.H
C:\PROGRAM FILES (X86)\WINDOWS KITS\10\INCLUDE\10.0.16299.0\UCRT\CORECRT_WTIME.H
C:\PROGRAM FILES (X86)\WINDOWS KITS\10\INCLUDE\10.0.16299.0\UCRT\SYS\STAT.H
C:\PROGRAM FILES (X86)\WINDOWS KITS\10\INCLUDE\10.0.16299.0\UCRT\SYS\TYPES.H
^D:\STUDY\ALGO2018-MASTER\LAB\BERNA\LAB2\LAB2\LAB2.CPP
D:\PROGRAM FILES (X86)\VS\VC\TOOLS\MSVC\14.13.26128\BIN\HOSTX86\X86\1049\CLUI.DLL
C:\WINDOWS\GLOBALIZATION\SORTING\SORTDEFAULT.NLS
D:\STUDY\ALGO2018-MASTER\LAB\BERNA\LAB2\LAB2\DEBUG\LAB2.PCH
C:\WINDOWS\SYSTEM32\TZRES.DLL
C:\PROGRAM FILES (X86)\WINDOWS KITS\10\INCLUDE\10.0.16299.0\UCRT\STDLIB.H
C:\PROGRAM FILES (X86)\WINDOWS KITS\10\INCLUDE\10.0.16299.0\UCRT\CORECRT_MALLOC.H
C:\PROGRAM FILES (X86)\WINDOWS KITS\10\INCLUDE\10.0.16299.0\UCRT\CORECRT_SEARCH.H
C:\PROGRAM FILES (X86)\WINDOWS KITS\10\INCLUDE\10.0.16299.0\UCRT\STDDEF.H
D:\PROGRAM FILES (X86)\VS\VC\TOOLS\MSVC\14.13.26128\INCLUDE\LIMITS.H
D:\PROGRAM FILES (X86)\VS\VC\TOOLS\MSVC\14.13.26128\INCLUDE\VCRUNTIME.H
D:\STUDY\ALGO2018-MASTER\LAB\BERNA\LAB2\LAB2\DOUBLENODE.CPP
D:\STUDY\ALGO2018-MASTER\LAB\BERNA\LAB2\LAB2\DOUBLENODE.H
D:\PROGRAM FILES (X86)\VS\VC\TOOLS\MSVC\14.13.26128\INCLUDE\IOSTREAM
D:\PROGRAM FILES (X86)\VS\VC\TOOLS\MSVC\14.13.26128\INCLUDE\ISTREAM
D:\PROGRAM FILES (X86)\VS\VC\TOOLS\MSVC\14.13.26128\INCLUDE\OSTREAM
D:\PROGRAM FILES (X86)\VS\VC\TOOLS\MSVC\14.13.26128\INCLUDE\IOS
D:\PROGRAM FILES (X86)\VS\VC\TOOLS\MSVC\14.13.26128\INCLUDE\XLOCNUM
D:\PROGRAM FILES (X86)\VS\VC\TOOLS\MSVC\14.13.26128\INCLUDE\CLIMITS
D:\PROGRAM FILES (X86)\VS\VC\TOOLS\MSVC\14.13.26128\INCLUDE\YVALS.H
D:\PROGRAM FILES (X86)\VS\VC\TOOLS\MSVC\14.13.26128\INCLUDE\XKEYCHECK.H
D:\PROGRAM FILES (X86)\VS\VC\TOOLS\MSVC\14.13.26128\INCLUDE\CRTDEFS.H
D:\PROGRAM FILES (X86)\VS\VC\TOOLS\MSVC\14.13.26128\INCLUDE\USE_ANSI.H
D:\PROGRAM FILES (X86)\VS\VC\TOOLS\MSVC\14.13.26128\INCLUDE\CMATH
D:\PROGRAM FILES (X86)\VS\VC\TOOLS\MSVC\14.13.26128\INCLUDE\CSTDLIB
C:\PROGRAM FILES (X86)\WINDOWS KITS\10\INCLUDE\10.0.16299.0\UCRT\MATH.H
C:\PROGRAM FILES (X86)\WINDOWS KITS\10\INCLUDE\10.0.16299.0\UCRT\CORECRT_MATH.H
D:\PROGRAM FILES (X86)\VS\VC\TOOLS\MSVC\14.13.26128\INCLUDE\XTGMATH.H
D:\PROGRAM FILES (X86)\VS\VC\TOOLS\MSVC\14.13.26128\INCLUDE\XTR1COMMON
D:\PROGRAM FILES (X86)\VS\VC\TOOLS\MSVC\14.13.26128\INCLUDE\CSTDIO
D:\PROGRAM FILES (X86)\VS\VC\TOOLS\MSVC\14.13.26128\INCLUDE\STREAMBUF
D:\PROGRAM FILES (X86)\VS\VC\TOOLS\MSVC\14.13.26128\INCLUDE\XIOSBASE
D:\PROGRAM FILES (X86)\VS\VC\TOOLS\MSVC\14.13.26128\INCLUDE\XLOCALE
D:\PROGRAM FILES (X86)\VS\VC\TOOLS\MSVC\14.13.26128\INCLUDE\CSTRING
C:\PROGRAM FILES (X86)\WINDOWS KITS\10\INCLUDE\10.0.16299.0\UCRT\STRING.H
C:\PROGRAM FILES (X86)\WINDOWS KITS\10\INCLUDE\10.0.16299.0\UCRT\CORECRT_MEMORY.H
D:\PROGRAM FILES (X86)\VS\VC\TOOLS\MSVC\14.13.26128\INCLUDE\STDEXCEPT
D:\PROGRAM FILES (X86)\VS\VC\TOOLS\MSVC\14.13.26128\INCLUDE\EXCEPTION
D:\PROGRAM FILES (X86)\VS\VC\TOOLS\MSVC\14.13.26128\INCLUDE\TYPE_TRAITS
D:\PROGRAM FILES (X86)\VS\VC\TOOLS\MSVC\14.13.26128\INCLUDE\XSTDDEF
D:\PROGRAM FILES (X86)\VS\VC\TOOLS\MSVC\14.13.26128\INCLUDE\CSTDDEF
D:\PROGRAM FILES (X86)\VS\VC\TOOLS\MSVC\14.13.26128\INCLUDE\INITIALIZER_LIST
C:\PROGRAM FILES (X86)\WINDOWS KITS\10\INCLUDE\10.0.16299.0\UCRT\MALLOC.H
D:\PROGRAM FILES (X86)\VS\VC\TOOLS\MSVC\14.13.26128\INCLUDE\VCRUNTIME_EXCEPTION.H
D:\PROGRAM FILES (X86)\VS\VC\TOOLS\MSVC\14.13.26128\INCLUDE\EH.H
C:\PROGRAM FILES (X86)\WINDOWS KITS\10\INCLUDE\10.0.16299.0\UCRT\CORECRT_TERMINATE.H
D:\PROGRAM FILES (X86)\VS\VC\TOOLS\MSVC\14.13.26128\INCLUDE\XSTRING
D:\PROGRAM FILES (X86)\VS\VC\TOOLS\MSVC\14.13.26128\INCLUDE\XMEMORY0
D:\PROGRAM FILES (X86)\VS\VC\TOOLS\MSVC\14.13.26128\INCLUDE\CSTDINT
D:\PROGRAM FILES (X86)\VS\VC\TOOLS\MSVC\14.13.26128\INCLUDE\STDINT.H
D:\PROGRAM FILES (X86)\VS\VC\TOOLS\MSVC\14.13.26128\INCLUDE\LIMITS
D:\PROGRAM FILES (X86)\VS\VC\TOOLS\MSVC\14.13.26128\INCLUDE\YMATH.H
D:\PROGRAM FILES (X86)\VS\VC\TOOLS\MSVC\14.13.26128\INCLUDE\CFLOAT
C:\PROGRAM FILES (X86)\WINDOWS KITS\10\INCLUDE\10.0.16299.0\UCRT\FLOAT.H
D:\PROGRAM FILES (X86)\VS\VC\TOOLS\MSVC\14.13.26128\INCLUDE\CWCHAR
D:\PROGRAM FILES (X86)\VS\VC\TOOLS\MSVC\14.13.26128\INCLUDE\NEW
D:\PROGRAM FILES (X86)\VS\VC\TOOLS\MSVC\14.13.26128\INCLUDE\VCRUNTIME_NEW.H
D:\PROGRAM FILES (X86)\VS\VC\TOOLS\MSVC\14.13.26128\INCLUDE\XUTILITY
D:\PROGRAM FILES (X86)\VS\VC\TOOLS\MSVC\14.13.26128\INCLUDE\UTILITY
D:\PROGRAM FILES (X86)\VS\VC\TOOLS\MSVC\14.13.26128\INCLUDE\IOSFWD
C:\PROGRAM FILES (X86)\WINDOWS KITS\10\INCLUDE\10.0.16299.0\UCRT\CRTDBG.H
D:\PROGRAM FILES (X86)\VS\VC\TOOLS\MSVC\14.13.26128\INCLUDE\VCRUNTIME_NEW_DEBUG.H
D:\PROGRAM FILES (X86)\VS\VC\TOOLS\MSVC\14.13.26128\INCLUDE\XATOMIC0.H
D:\PROGRAM FILES (X86)\VS\VC\TOOLS\MSVC\14.13.26128\INCLUDE\INTRIN0.H
D:\PROGRAM FILES (X86)\VS\VC\TOOLS\MSVC\14.13.26128\INCLUDE\TYPEINFO
D:\PROGRAM FILES (X86)\VS\VC\TOOLS\MSVC\14.13.26128\INCLUDE\VCRUNTIME_TYPEINFO.H
D:\PROGRAM FILES (X86)\VS\VC\TOOLS\MSVC\14.13.26128\INCLUDE\XLOCINFO
D:\PROGRAM FILES (X86)\VS\VC\TOOLS\MSVC\14.13.26128\INCLUDE\XLOCINFO.H
C:\PROGRAM FILES (X86)\WINDOWS KITS\10\INCLUDE\10.0.16299.0\UCRT\CTYPE.H
C:\PROGRAM FILES (X86)\WINDOWS KITS\10\INCLUDE\10.0.16299.0\UCRT\LOCALE.H
D:\PROGRAM FILES (X86)\VS\VC\TOOLS\MSVC\14.13.26128\INCLUDE\XFACET
D:\PROGRAM FILES (X86)\VS\VC\TOOLS\MSVC\14.13.26128\INCLUDE\SYSTEM_ERROR
D:\PROGRAM FILES (X86)\VS\VC\TOOLS\MSVC\14.13.26128\INCLUDE\CERRNO
D:\PROGRAM FILES (X86)\VS\VC\TOOLS\MSVC\14.13.26128\INCLUDE\XCALL_ONCE.H
C:\PROGRAM FILES (X86)\WINDOWS KITS\10\INCLUDE\10.0.16299.0\UCRT\SHARE.H
